,date_time,x,y,z,segment,length_m,length_s,street_category,calculate_speed_kmh,incident_start_x,incident_start_y,incident_length,incident_delay,incident_absolute_speed,incident_message
598261,2017-12-23T08:00:00+00:00,15.828827077,41.345410477,44.0,565.0,104110.0,5707.0,MOTORWAY,57.0,4526280.0,5213836.0,1124.0,,50.0,A14/E55 northwestern Autostrada Adriatica at Orta Nova people on roadway
598274,2017-12-23T08:00:00+00:00,15.768445527,41.371902227,38.0,578.0,104133.0,5708.0,MOTORWAY,50.0,4526280.0,5213836.0,1124.0,,50.0,A14/E55 northwestern Autostrada Adriatica at Orta Nova people on roadway
598275,2017-12-23T08:00:00+00:00,15.768229261,41.372032062,38.0,579.0,104164.0,5711.0,MOTORWAY,50.0,4526280.0,5213836.0,1124.0,,50.0,A14/E55 northwestern Autostrada Adriatica at Orta Nova people on roadway
598276,2017-12-23T08:00:00+00:00,15.767926488,41.372194355,38.0,580.0,104205.0,5713.0,MOTORWAY,50.0,4526280.0,5213836.0,1124.0,,50.0,A14/E55 northwestern Autostrada Adriatica at Orta Nova people on roadway
598277,2017-12-23T08:00:00+00:00,15.767537209,41.372421565,38.0,581.0,105413.0,5790.0,MOTORWAY,56.0,4526280.0,5213836.0,1124.0,,50.0,A14/E55 northwestern Autostrada Adriatica at Orta Nova people on roadway
598717,2017-12-23T08:00:00+00:00,14.960517896,42.006973246,14.655,1021.0,212438.0,11002.0,MOTORWAY,73.0,4507317.0,5233670.0,1266.0,,80.0,A14/E55 westbound Autostrada Adriatica at Termoli roadworks
599555,2017-12-23T08:00:00+00:00,14.075858982,42.576680804,99.408,1859.0,325726.0,16409.0,MOTORWAY,56.0,4486965.0,5251429.0,5377.0,,60.0,A14/E55 northwestern Autostrada Adriatica at Silvi roadworks
599556,2017-12-23T08:00:00+00:00,14.075858982,42.576744505,99.02,1860.0,325747.0,16411.0,MOTORWAY,56.0,4486965.0,5251429.0,5377.0,,60.0,A14/E55 northwestern Autostrada Adriatica at Silvi roadworks
599557,2017-12-23T08:00:00+00:00,14.075815729,42.576935608,97.339,1861.0,325909.0,16421.0,MOTORWAY,56.0,4486965.0,5251429.0,5377.0,,60.0,A14/E55 northwestern Autostrada Adriatica at Silvi roadworks
599559,2017-12-23T08:00:00+00:00,14.075512956,42.578400708,120.891,1863.0,325916.0,16421.0,MOTORWAY,56.0,4486965.0,5251429.0,5377.0,,60.0,A14/E55 northwestern Autostrada Adriatica at Silvi roadworks
599560,2017-12-23T08:00:00+00:00,14.075512956,42.578464408,122.006,1864.0,327189.0,16503.0,MOTORWAY,56.0,4486965.0,5251429.0,5377.0,,60.0,A14/E55 northwestern Autostrada Adriatica at Silvi roadworks
599566,2017-12-23T08:00:00+00:00,14.070149552,42.589164955,89.041,1870.0,327303.0,16510.0,MOTORWAY,56.0,4486965.0,5251429.0,5377.0,,60.0,A14/E55 northwestern Autostrada Adriatica at Silvi roadworks
599567,2017-12-23T08:00:00+00:00,14.069544006,42.590088428,85.52,1871.0,328121.0,16563.0,MOTORWAY,56.0,4486965.0,5251429.0,5377.0,,60.0,A14/E55 northwestern Autostrada Adriatica at Silvi roadworks
599569,2017-12-23T08:00:00+00:00,14.065305187,42.596743398,55.226,1873.0,328127.0,16563.0,MOTORWAY,56.0,4486965.0,5251429.0,5377.0,,60.0,A14/E55 northwestern Autostrada Adriatica at Silvi roadworks
599570,2017-12-23T08:00:00+00:00,14.065261934,42.596775238,54.795,1874.0,328184.0,16567.0,MOTORWAY,56.0,4486965.0,5251429.0,5377.0,,60.0,A14/E55 northwestern Autostrada Adriatica at Silvi roadworks
599571,2017-12-23T08:00:00+00:00,14.064959161,42.59725284,59.451,1875.0,328192.0,16567.0,MOTORWAY,56.0,4486965.0,5251429.0,5377.0,,60.0,A14/E55 northwestern Autostrada Adriatica at Silvi roadworks
599572,2017-12-23T08:00:00+00:00,14.064915908,42.59728468,59.659,1876.0,328775.0,16604.0,MOTORWAY,56.0,4486965.0,5251429.0,5377.0,,60.0,A14/E55 northwestern Autostrada Adriatica at Silvi roadworks
599577,2017-12-23T08:00:00+00:00,14.061455647,42.601837632,73.19,1881.0,328855.0,16610.0,MOTORWAY,56.0,4486965.0,5251429.0,5377.0,,60.0,A14/E55 northwestern Autostrada Adriatica at Silvi roadworks
599578,2017-12-23T08:00:00+00:00,14.060763595,42.60237887,74.862,1882.0,329536.0,16653.0,MOTORWAY,56.0,4486965.0,5251429.0,5377.0,,60.0,A14/E55 northwestern Autostrada Adriatica at Silvi roadworks
599581,2017-12-23T08:00:00+00:00,14.053453794,42.60514866,60.67,1885.0,329552.0,16654.0,MOTORWAY,56.0,4486965.0,5251429.0,5377.0,,60.0,A14/E55 northwestern Autostrada Adriatica at Silvi roadworks
599582,2017-12-23T08:00:00+00:00,14.053280781,42.605180496,58.273,1886.0,329647.0,16660.0,MOTORWAY,56.0,4486965.0,5251429.0,5377.0,,60.0,A14/E55 northwestern Autostrada Adriatica at Silvi roadworks
599583,2017-12-23T08:00:00+00:00,14.052156196,42.605467019,58.694,1887.0,329695.0,16663.0,MOTORWAY,56.0,4486965.0,5251429.0,5377.0,,60.0,A14/E55 northwestern Autostrada Adriatica at Silvi roadworks
599584,2017-12-23T08:00:00+00:00,14.051593904,42.605594362,54.2,1888.0,329784.0,16669.0,MOTORWAY,56.0,4486965.0,5251429.0,5377.0,,60.0,A14/E55 northwestern Autostrada Adriatica at Silvi roadworks
599586,2017-12-23T08:00:00+00:00,14.050599079,42.605880883,36.091,1890.0,329883.0,16675.0,MOTORWAY,56.0,4486965.0,5251429.0,5377.0,,60.0,A14/E55 northwestern Autostrada Adriatica at Silvi roadworks
599587,2017-12-23T08:00:00+00:00,14.049431241,42.606167403,38.311,1891.0,329915.0,16677.0,MOTORWAY,56.0,4486965.0,5251429.0,5377.0,,60.0,A14/E55 northwestern Autostrada Adriatica at Silvi roadworks
599588,2017-12-23T08:00:00+00:00,14.049085215,42.606262909,38.578,1892.0,329923.0,16678.0,MOTORWAY,56.0,4486965.0,5251429.0,5377.0,,60.0,A14/E55 northwestern Autostrada Adriatica at Silvi roadworks
599589,2017-12-23T08:00:00+00:00,14.048998708,42.606294745,38.721,1893.0,329982.0,16682.0,MOTORWAY,56.0,4486965.0,5251429.0,5377.0,,60.0,A14/E55 northwestern Autostrada Adriatica at Silvi roadworks
599590,2017-12-23T08:00:00+00:00,14.048306656,42.606453921,38.652,1894.0,330101.0,16689.0,MOTORWAY,56.0,4486965.0,5251429.0,5377.0,,60.0,A14/E55 northwestern Autostrada Adriatica at Silvi roadworks
599591,2017-12-23T08:00:00+00:00,14.046922552,42.606804109,41.265,1895.0,330183.0,16695.0,MOTORWAY,56.0,4486965.0,5251429.0,5377.0,,60.0,A14/E55 northwestern Autostrada Adriatica at Silvi roadworks
599592,2017-12-23T08:00:00+00:00,14.046014233,42.607026954,35.66,1896.0,330269.0,16700.0,MOTORWAY,56.0,4486965.0,5251429.0,5377.0,,60.0,A14/E55 northwestern Autostrada Adriatica at Silvi roadworks
599593,2017-12-23T08:00:00+00:00,14.045019408,42.607281634,35.036,1897.0,330511.0,16716.0,MOTORWAY,56.0,4486965.0,5251429.0,5377.0,,60.0,A14/E55 northwestern Autostrada Adriatica at Silvi roadworks
599594,2017-12-23T08:00:00+00:00,14.0422512,42.608077501,31.976,1898.0,330570.0,16719.0,MOTORWAY,56.0,4486965.0,5251429.0,5377.0,,60.0,A14/E55 northwestern Autostrada Adriatica at Silvi roadworks
599595,2017-12-23T08:00:00+00:00,14.041602401,42.608332176,31.456,1899.0,330595.0,16721.0,MOTORWAY,56.0,4486965.0,5251429.0,5377.0,,60.0,A14/E55 northwestern Autostrada Adriatica at Silvi roadworks
599596,2017-12-23T08:00:00+00:00,14.041342881,42.608459513,27.568,1900.0,330621.0,16723.0,MOTORWAY,56.0,4486965.0,5251429.0,5377.0,,60.0,A14/E55 northwestern Autostrada Adriatica at Silvi roadworks
599597,2017-12-23T08:00:00+00:00,14.041083362,42.60858685,27.788,1901.0,330721.0,16729.0,MOTORWAY,56.0,4486965.0,5251429.0,5377.0,,60.0,A14/E55 northwestern Autostrada Adriatica at Silvi roadworks
599599,2017-12-23T08:00:00+00:00,14.040088537,42.609096195,27.771,1903.0,330909.0,16741.0,MOTORWAY,56.0,4486965.0,5251429.0,5377.0,,60.0,A14/E55 northwestern Autostrada Adriatica at Silvi roadworks
599601,2017-12-23T08:00:00+00:00,14.038358406,42.61017854,27.497,1905.0,331095.0,16753.0,MOTORWAY,56.0,4486965.0,5251429.0,5377.0,,60.0,A14/E55 northwestern Autostrada Adriatica at Silvi roadworks
599617,2017-12-23T08:00:00+00:00,14.007648592,42.619791484,52.946,1921.0,334617.0,16929.0,MOTORWAY,68.0,4485386.0,5252784.0,2459.0,,80.0,A14/E55 northwestern Autostrada Adriatica at Atri roadworks
599621,2017-12-23T08:00:00+00:00,13.999776499,42.625965904,37.047,1925.0,334738.0,16935.0,MOTORWAY,66.0,4485386.0,5252784.0,2459.0,,80.0,A14/E55 northwestern Autostrada Adriatica at Atri roadworks
599622,2017-12-23T08:00:00+00:00,13.998738421,42.626761532,34.694,1926.0,335102.0,16955.0,MOTORWAY,66.0,4485386.0,5252784.0,2459.0,,80.0,A14/E55 northwestern Autostrada Adriatica at Atri roadworks
599624,2017-12-23T08:00:00+00:00,13.995667439,42.629116531,22.115,1928.0,335123.0,16956.0,MOTORWAY,66.0,4485386.0,5252784.0,2459.0,,80.0,A14/E55 northwestern Autostrada Adriatica at Atri roadworks
599625,2017-12-23T08:00:00+00:00,13.99553768,42.62927565,22.022,1929.0,335609.0,16983.0,MOTORWAY,66.0,4485386.0,5252784.0,2459.0,,80.0,A14/E55 northwestern Autostrada Adriatica at Atri roadworks
599626,2017-12-23T08:00:00+00:00,13.991515127,42.632489754,22.0,1930.0,335811.0,16994.0,MOTORWAY,66.0,4485386.0,5252784.0,2459.0,,80.0,A14/E55 northwestern Autostrada Adriatica at Atri roadworks
599627,2017-12-23T08:00:00+00:00,13.989871503,42.633826263,22.0,1931.0,335935.0,17001.0,MOTORWAY,66.0,4485386.0,5252784.0,2459.0,,80.0,A14/E55 northwestern Autostrada Adriatica at Atri roadworks
599629,2017-12-23T08:00:00+00:00,13.988833424,42.634653612,22.0,1933.0,335944.0,17002.0,MOTORWAY,66.0,4485386.0,5252784.0,2459.0,,80.0,A14/E55 northwestern Autostrada Adriatica at Atri roadworks
599630,2017-12-23T08:00:00+00:00,13.988746918,42.634717253,22.0,1934.0,335952.0,17002.0,MOTORWAY,66.0,4485386.0,5252784.0,2459.0,,80.0,A14/E55 northwestern Autostrada Adriatica at Atri roadworks
599631,2017-12-23T08:00:00+00:00,13.988703665,42.634780895,22.0,1935.0,336141.0,17012.0,MOTORWAY,66.0,4485386.0,5252784.0,2459.0,,80.0,A14/E55 northwestern Autostrada Adriatica at Atri roadworks
600806,2017-12-23T08:00:00+00:00,13.091068774,43.787765122,24.322,3110.0,501801.0,25053.0,MOTORWAY,66.0,4464197.0,5289830.0,514.0,,80.0,A14/E55 northwestern Autostrada Adriatica at San Costanzo roadworks
601573,2017-12-23T08:00:00+00:00,11.741999615,44.380813184,27.0,3877.0,631598.0,31289.0,MOTORWAY,69.0,4433007.0,5308918.0,27671.0,,50.0,A14/E45 westbound Autostrada Adriatica in direction Bologna/E45 at Imola people on roadway
601574,2017-12-23T08:00:00+00:00,11.740009965,44.381524188,27.0,3878.0,631654.0,31292.0,MOTORWAY,76.0,4433007.0,5308918.0,27671.0,,50.0,A14/E45 westbound Autostrada Adriatica in direction Bologna/E45 at Imola people on roadway
601575,2017-12-23T08:00:00+00:00,11.739361166,44.381740579,27.0,3879.0,631673.0,31293.0,MOTORWAY,69.0,4433007.0,5308918.0,27671.0,,50.0,A14/E45 westbound Autostrada Adriatica in direction Bologna/E45 at Imola people on roadway
601576,2017-12-23T08:00:00+00:00,11.739144899,44.381833317,27.0,3880.0,632639.0,31338.0,MOTORWAY,76.0,4433007.0,5308918.0,27671.0,,50.0,A14/E45 westbound Autostrada Adriatica in direction Bologna/E45 at Imola people on roadway
601578,2017-12-23T08:00:00+00:00,11.728288331,44.385728209,25.0,3882.0,638438.0,31622.0,MOTORWAY,73.0,4433007.0,5308918.0,27671.0,,50.0,A14/E45 westbound Autostrada Adriatica in direction Bologna/E45 at Imola people on roadway
601593,2017-12-23T08:00:00+00:00,11.664100494,44.410420735,40.0,3897.0,638545.0,31627.0,MOTORWAY,76.0,4433007.0,5308918.0,27671.0,,50.0,A14/E45 westbound Autostrada Adriatica in direction Bologna/E45 at Imola people on roadway
601594,2017-12-23T08:00:00+00:00,11.66284615,44.41076061,40.0,3898.0,638604.0,31630.0,MOTORWAY,76.0,4433007.0,5308918.0,27671.0,,50.0,A14/E45 westbound Autostrada Adriatica in direction Bologna/E45 at Imola people on roadway
601595,2017-12-23T08:00:00+00:00,11.662154098,44.410915098,40.0,3899.0,638615.0,31631.0,MOTORWAY,73.0,4433007.0,5308918.0,27671.0,,50.0,A14/E45 westbound Autostrada Adriatica in direction Bologna/E45 at Imola people on roadway
601596,2017-12-23T08:00:00+00:00,11.661981085,44.410945995,40.0,3900.0,638644.0,31632.0,MOTORWAY,76.0,4433007.0,5308918.0,27671.0,,50.0,A14/E45 westbound Autostrada Adriatica in direction Bologna/E45 at Imola people on roadway
601597,2017-12-23T08:00:00+00:00,11.661678312,44.411038688,40.0,3901.0,640771.0,31732.0,MOTORWAY,76.0,4433007.0,5308918.0,27671.0,,50.0,A14/E45 westbound Autostrada Adriatica in direction Bologna/E45 at Imola people on roadway
601601,2017-12-23T08:00:00+00:00,11.635293824,44.414313725,42.0,3905.0,640837.0,31735.0,MOTORWAY,73.0,4433007.0,5308918.0,27671.0,,50.0,A14/E45 westbound Autostrada Adriatica in direction Bologna/E45 at Imola people on roadway
601603,2017-12-23T08:00:00+00:00,11.634472012,44.414406412,44.0,3907.0,641564.0,31769.0,MOTORWAY,76.0,4433007.0,5308918.0,27671.0,,50.0,A14/E45 westbound Autostrada Adriatica in direction Bologna/E45 at Imola people on roadway
601607,2017-12-23T08:00:00+00:00,11.626210639,44.416939801,41.0,3911.0,641697.0,31776.0,MOTORWAY,73.0,4433007.0,5308918.0,27671.0,,50.0,A14/E45 westbound Autostrada Adriatica in direction Bologna/E45 at Imola people on roadway
601608,2017-12-23T08:00:00+00:00,11.624956295,44.417743048,41.0,3912.0,641988.0,31790.0,MOTORWAY,76.0,4433007.0,5308918.0,27671.0,,50.0,A14/E45 westbound Autostrada Adriatica in direction Bologna/E45 at Imola people on roadway
601611,2017-12-23T08:00:00+00:00,11.622231339,44.419503974,48.0,3915.0,642680.0,31823.0,MOTORWAY,73.0,4433007.0,5308918.0,27671.0,,50.0,A14/E45 westbound Autostrada Adriatica in direction Bologna/E45 at Imola people on roadway
601613,2017-12-23T08:00:00+00:00,11.615527084,44.42345814,47.0,3917.0,642791.0,31829.0,MOTORWAY,76.0,4433007.0,5308918.0,27671.0,,50.0,A14/E45 westbound Autostrada Adriatica in direction Bologna/E45 at Imola people on roadway
601614,2017-12-23T08:00:00+00:00,11.614359246,44.423983283,47.0,3918.0,642926.0,31835.0,MOTORWAY,76.0,4433007.0,5308918.0,27671.0,,50.0,A14/E45 westbound Autostrada Adriatica in direction Bologna/E45 at Imola people on roadway
601615,2017-12-23T08:00:00+00:00,11.612845382,44.424539311,47.0,3919.0,643068.0,31842.0,MOTORWAY,76.0,4433007.0,5308918.0,27671.0,,50.0,A14/E45 westbound Autostrada Adriatica in direction Bologna/E45 at Imola people on roadway
601617,2017-12-23T08:00:00+00:00,11.611201758,44.425033554,50.0,3921.0,643294.0,31852.0,MOTORWAY,76.0,4433007.0,5308918.0,27671.0,,50.0,A14/E45 westbound Autostrada Adriatica in direction Bologna/E45 at Imola people on roadway
601618,2017-12-23T08:00:00+00:00,11.608563309,44.4258058,50.0,3922.0,643453.0,31860.0,MOTORWAY,73.0,4433007.0,5308918.0,27671.0,,50.0,A14/E45 westbound Autostrada Adriatica in direction Bologna/E45 at Imola people on roadway
601620,2017-12-23T08:00:00+00:00,11.606703419,44.426330921,50.0,3924.0,643501.0,31862.0,MOTORWAY,76.0,4433007.0,5308918.0,27671.0,,50.0,A14/E45 westbound Autostrada Adriatica in direction Bologna/E45 at Imola people on roadway
601621,2017-12-23T08:00:00+00:00,11.606141127,44.426485368,50.0,3925.0,643661.0,31870.0,MOTORWAY,76.0,4433007.0,5308918.0,27671.0,,50.0,A14/E45 westbound Autostrada Adriatica in direction Bologna/E45 at Imola people on roadway
601622,2017-12-23T08:00:00+00:00,11.604281237,44.427041372,50.0,3926.0,643787.0,31876.0,MOTORWAY,73.0,4433007.0,5308918.0,27671.0,,50.0,A14/E45 westbound Autostrada Adriatica in direction Bologna/E45 at Imola people on roadway
601623,2017-12-23T08:00:00+00:00,11.602810626,44.427473816,50.0,3927.0,643848.0,31879.0,MOTORWAY,76.0,4433007.0,5308918.0,27671.0,,50.0,A14/E45 westbound Autostrada Adriatica in direction Bologna/E45 at Imola people on roadway
601624,2017-12-23T08:00:00+00:00,11.602075321,44.427659149,50.0,3928.0,644354.0,31904.0,MOTORWAY,73.0,4433007.0,5308918.0,27671.0,,50.0,A14/E45 westbound Autostrada Adriatica in direction Bologna/E45 at Imola people on roadway
601626,2017-12-23T08:00:00+00:00,11.596192877,44.429419776,48.0,3930.0,644487.0,31910.0,MOTORWAY,73.0,4433007.0,5308918.0,27671.0,,50.0,A14/E45 westbound Autostrada Adriatica in direction Bologna/E45 at Imola people on roadway
601627,2017-12-23T08:00:00+00:00,11.594679013,44.429913977,48.0,3931.0,650091.0,32185.0,MOTORWAY,73.0,4433007.0,5308918.0,27671.0,,50.0,A14/E45 westbound Autostrada Adriatica in direction Bologna/E45 at Imola people on roadway
601641,2017-12-23T08:00:00+00:00,11.533043119,44.454186485,45.0,3945.0,652539.0,32300.0,MOTORWAY,76.0,4433007.0,5308918.0,27671.0,,50.0,A14/E45 westbound Autostrada Adriatica in direction Bologna/E45 at Imola people on roadway
601646,2017-12-23T08:00:00+00:00,11.503760662,44.461071123,43.0,3950.0,652998.0,32324.0,MOTORWAY,69.0,4433007.0,5308918.0,27671.0,,50.0,A14/E45 westbound Autostrada Adriatica in direction Bologna/E45 at Imola people on roadway
601648,2017-12-23T08:00:00+00:00,11.498354005,44.462583782,41.0,3952.0,653246.0,32335.0,MOTORWAY,76.0,4433007.0,5308918.0,27671.0,,50.0,A14/E45 westbound Autostrada Adriatica in direction Bologna/E45 at Imola people on roadway
601649,2017-12-23T08:00:00+00:00,11.495456036,44.463417272,41.0,3953.0,653250.0,32336.0,MOTORWAY,76.0,4433007.0,5308918.0,27671.0,,50.0,A14/E45 westbound Autostrada Adriatica in direction Bologna/E45 at Imola people on roadway
601650,2017-12-23T08:00:00+00:00,11.495412783,44.463417272,41.0,3954.0,654359.0,32390.0,MOTORWAY,73.0,4433007.0,5308918.0,27671.0,,50.0,A14/E45 westbound Autostrada Adriatica in direction Bologna/E45 at Imola people on roadway
601654,2017-12-23T08:00:00+00:00,11.482653072,44.46746107,39.0,3958.0,657202.0,32524.0,MOTORWAY,76.0,4433007.0,5308918.0,27671.0,,50.0,A14/E45 westbound Autostrada Adriatica in direction Bologna/E45 at Imola people on roadway
601661,2017-12-23T08:00:00+00:00,11.450602406,44.478757525,55.0,3965.0,657989.0,32561.0,MOTORWAY,76.0,4433007.0,5308918.0,27671.0,,50.0,A14/E45 westbound Autostrada Adriatica in direction Bologna/E45 at Imola people on roadway
601665,2017-12-23T08:00:00+00:00,11.441129943,44.480670916,46.0,3969.0,658066.0,32564.0,MOTORWAY,73.0,4433007.0,5308918.0,27671.0,,50.0,A14/E45 westbound Autostrada Adriatica in direction Bologna/E45 at Imola people on roadway
601666,2017-12-23T08:00:00+00:00,11.440135118,44.480670916,46.0,3970.0,658331.0,32577.0,MOTORWAY,76.0,4433007.0,5308918.0,27671.0,,50.0,A14/E45 westbound Autostrada Adriatica in direction Bologna/E45 at Imola people on roadway
601667,2017-12-23T08:00:00+00:00,11.436804617,44.480670916,46.0,3971.0,658373.0,32579.0,MOTORWAY,73.0,4433007.0,5308918.0,27671.0,,50.0,A14/E45 westbound Autostrada Adriatica in direction Bologna/E45 at Imola people on roadway
601669,2017-12-23T08:00:00+00:00,11.436285578,44.480670916,46.0,3973.0,658447.0,32582.0,MOTORWAY,73.0,4433007.0,5308918.0,27671.0,,50.0,A14/E45 westbound Autostrada Adriatica in direction Bologna/E45 at Imola people on roadway
601670,2017-12-23T08:00:00+00:00,11.435334006,44.480670916,46.0,3974.0,658534.0,32587.0,MOTORWAY,73.0,4433007.0,5308918.0,27671.0,,50.0,A14/E45 westbound Autostrada Adriatica in direction Bologna/E45 at Imola people on roadway
601671,2017-12-23T08:00:00+00:00,11.434252674,44.480670916,46.0,3975.0,658610.0,32591.0,MOTORWAY,69.0,4433007.0,5308918.0,27671.0,,50.0,A14/E45 westbound Autostrada Adriatica in direction Bologna/E45 at Imola people on roadway
601672,2017-12-23T08:00:00+00:00,11.433301103,44.480670916,46.0,3976.0,658861.0,32603.0,MOTORWAY,73.0,4433007.0,5308918.0,27671.0,,50.0,A14/E45 westbound Autostrada Adriatica in direction Bologna/E45 at Imola people on roadway
601673,2017-12-23T08:00:00+00:00,11.430143615,44.480670916,49.0,3977.0,658871.0,32603.0,MOTORWAY,76.0,4433007.0,5308918.0,27671.0,,50.0,A14/E45 westbound Autostrada Adriatica in direction Bologna/E45 at Imola people on roadway
601674,2017-12-23T08:00:00+00:00,11.430013855,44.480670916,49.0,3978.0,658981.0,32609.0,MOTORWAY,73.0,4433007.0,5308918.0,27671.0,,50.0,A14/E45 westbound Autostrada Adriatica in direction Bologna/E45 at Imola people on roadway
601675,2017-12-23T08:00:00+00:00,11.428629751,44.480670916,49.0,3979.0,659091.0,32614.0,MOTORWAY,76.0,4433007.0,5308918.0,27671.0,,50.0,A14/E45 westbound Autostrada Adriatica in direction Bologna/E45 at Imola people on roadway
601676,2017-12-23T08:00:00+00:00,11.427245646,44.480670916,49.0,3980.0,659232.0,32621.0,MOTORWAY,73.0,4425730.0,5312151.0,13856.0,,50.0,A14/E45 westbound Autostrada Adriatica in direction A1/Milano/Bologna Casalecchio/E35/Firenze/Bologna Borgo Panigale at San Lazzaro di Savena road surface in poor condition. Danger
601678,2017-12-23T08:00:00+00:00,11.425472263,44.480670916,49.0,3982.0,659295.0,32624.0,MOTORWAY,66.0,4425730.0,5312151.0,13856.0,,50.0,A14/E45 westbound Autostrada Adriatica in direction A1/Milano/Bologna Casalecchio/E35/Firenze/Bologna Borgo Panigale at San Lazzaro di Savena road surface in poor condition. Danger
601679,2017-12-23T08:00:00+00:00,11.424650451,44.480701776,49.0,3983.0,659608.0,32642.0,MOTORWAY,66.0,4425730.0,5312151.0,13856.0,,50.0,A14/E45 westbound Autostrada Adriatica in direction A1/Milano/Bologna Casalecchio/E35/Firenze/Bologna Borgo Panigale at San Lazzaro di Savena road surface in poor condition. Danger
601682,2017-12-23T08:00:00+00:00,11.420800911,44.481195544,50.906,3986.0,659652.0,32644.0,MOTORWAY,66.0,4425730.0,5312151.0,13856.0,,50.0,A14/E45 westbound Autostrada Adriatica in direction A1/Milano/Bologna Casalecchio/E35/Firenze/Bologna Borgo Panigale at San Lazzaro di Savena road surface in poor condition. Danger
601683,2017-12-23T08:00:00+00:00,11.420281872,44.481349846,50.989,3987.0,659674.0,32645.0,MOTORWAY,66.0,4425730.0,5312151.0,13856.0,,50.0,A14/E45 westbound Autostrada Adriatica in direction A1/Milano/Bologna Casalecchio/E35/Firenze/Bologna Borgo Panigale at San Lazzaro di Savena road surface in poor condition. Danger
601684,2017-12-23T08:00:00+00:00,11.420022352,44.481411566,51.036,3988.0,660088.0,32668.0,MOTORWAY,66.0,4425730.0,5312151.0,13856.0,,50.0,A14/E45 westbound Autostrada Adriatica in direction A1/Milano/Bologna Casalecchio/E35/Firenze/Bologna Borgo Panigale at San Lazzaro di Savena road surface in poor condition. Danger
601685,2017-12-23T08:00:00+00:00,11.415307747,44.482985417,54.693,3989.0,660096.0,32668.0,MOTORWAY,66.0,4425730.0,5312151.0,13856.0,,50.0,A14/E45 westbound Autostrada Adriatica in direction A1/Milano/Bologna Casalecchio/E35/Firenze/Bologna Borgo Panigale at San Lazzaro di Savena road surface in poor condition. Danger
601686,2017-12-23T08:00:00+00:00,11.41522124,44.483016277,54.687,3990.0,660104.0,32669.0,MOTORWAY,66.0,4425730.0,5312151.0,13856.0,,50.0,A14/E45 westbound Autostrada Adriatica in direction A1/Milano/Bologna Casalecchio/E35/Firenze/Bologna Borgo Panigale at San Lazzaro di Savena road surface in poor condition. Danger
601687,2017-12-23T08:00:00+00:00,11.41509148,44.483047136,55.0,3991.0,660339.0,32682.0,MOTORWAY,66.0,4425730.0,5312151.0,13856.0,,50.0,A14/E45 westbound Autostrada Adriatica in direction A1/Milano/Bologna Casalecchio/E35/Firenze/Bologna Borgo Panigale at San Lazzaro di Savena road surface in poor condition. Danger
601689,2017-12-23T08:00:00+00:00,11.412409778,44.483942051,53.608,3993.0,660663.0,32700.0,MOTORWAY,66.0,4425730.0,5312151.0,13856.0,,50.0,A14/E45 westbound Autostrada Adriatica in direction A1/Milano/Bologna Casalecchio/E35/Firenze/Bologna Borgo Panigale at San Lazzaro di Savena road surface in poor condition. Danger
601690,2017-12-23T08:00:00+00:00,11.408733251,44.485176394,54.0,3994.0,660881.0,32712.0,MOTORWAY,66.0,4425730.0,5312151.0,13856.0,,50.0,A14/E45 westbound Autostrada Adriatica in direction A1/Milano/Bologna Casalecchio/E35/Firenze/Bologna Borgo Panigale at San Lazzaro di Savena road surface in poor condition. Danger
601691,2017-12-23T08:00:00+00:00,11.406267816,44.486009561,54.0,3995.0,661163.0,32727.0,MOTORWAY,66.0,4425730.0,5312151.0,13856.0,,50.0,A14/E45 westbound Autostrada Adriatica in direction A1/Milano/Bologna Casalecchio/E35/Firenze/Bologna Borgo Panigale at San Lazzaro di Savena road surface in poor condition. Danger
601693,2017-12-23T08:00:00+00:00,11.403023821,44.487089574,54.0,3997.0,661611.0,32752.0,MOTORWAY,66.0,4425730.0,5312151.0,13856.0,,50.0,A14/E45 westbound Autostrada Adriatica in direction A1/Milano/Bologna Casalecchio/E35/Firenze/Bologna Borgo Panigale at San Lazzaro di Savena road surface in poor condition. Danger
601695,2017-12-23T08:00:00+00:00,11.397919936,44.488786697,52.0,3999.0,662053.0,32776.0,MOTORWAY,66.0,4425730.0,5312151.0,13856.0,,50.0,A14/E45 westbound Autostrada Adriatica in direction A1/Milano/Bologna Casalecchio/E35/Firenze/Bologna Borgo Panigale at San Lazzaro di Savena road surface in poor condition. Danger
601698,2017-12-23T08:00:00+00:00,11.393508104,44.491162587,52.0,4002.0,662086.0,32778.0,MOTORWAY,66.0,4425730.0,5312151.0,13856.0,,50.0,A14/E45 westbound Autostrada Adriatica in direction A1/Milano/Bologna Casalecchio/E35/Firenze/Bologna Borgo Panigale at San Lazzaro di Savena road surface in poor condition. Danger
601699,2017-12-23T08:00:00+00:00,11.393248584,44.491378572,52.0,4003.0,662111.0,32779.0,MOTORWAY,66.0,4425730.0,5312151.0,13856.0,,50.0,A14/E45 westbound Autostrada Adriatica in direction A1/Milano/Bologna Casalecchio/E35/Firenze/Bologna Borgo Panigale at San Lazzaro di Savena road surface in poor condition. Danger
601700,2017-12-23T08:00:00+00:00,11.393032318,44.491563702,52.0,4004.0,662280.0,32789.0,MOTORWAY,66.0,4425730.0,5312151.0,13856.0,,50.0,A14/E45 westbound Autostrada Adriatica in direction A1/Milano/Bologna Casalecchio/E35/Firenze/Bologna Borgo Panigale at San Lazzaro di Savena road surface in poor condition. Danger
601702,2017-12-23T08:00:00+00:00,11.39186448,44.492828738,52.0,4006.0,662350.0,32792.0,MOTORWAY,66.0,4425730.0,5312151.0,13856.0,,50.0,A14/E45 westbound Autostrada Adriatica in direction A1/Milano/Bologna Casalecchio/E35/Firenze/Bologna Borgo Panigale at San Lazzaro di Savena road surface in poor condition. Danger
601703,2017-12-23T08:00:00+00:00,11.391388694,44.493353257,52.0,4007.0,662428.0,32797.0,MOTORWAY,66.0,4425730.0,5312151.0,13856.0,,50.0,A14/E45 westbound Autostrada Adriatica in direction A1/Milano/Bologna Casalecchio/E35/Firenze/Bologna Borgo Panigale at San Lazzaro di Savena road surface in poor condition. Danger
601704,2017-12-23T08:00:00+00:00,11.390869655,44.493939479,50.685,4008.0,662706.0,32812.0,MOTORWAY,66.0,4425730.0,5312151.0,13856.0,,50.0,A14/E45 westbound Autostrada Adriatica in direction A1/Milano/Bologna Casalecchio/E35/Firenze/Bologna Borgo Panigale at San Lazzaro di Savena road surface in poor condition. Danger
601705,2017-12-23T08:00:00+00:00,11.389009765,44.496068339,46.0,4009.0,662744.0,32814.0,MOTORWAY,66.0,4425730.0,5312151.0,13856.0,,50.0,A14/E45 westbound Autostrada Adriatica in direction A1/Milano/Bologna Casalecchio/E35/Firenze/Bologna Borgo Panigale at San Lazzaro di Savena road surface in poor condition. Danger
601706,2017-12-23T08:00:00+00:00,11.388750245,44.496346011,46.0,4010.0,662757.0,32815.0,MOTORWAY,66.0,4425730.0,5312151.0,13856.0,,50.0,A14/E45 westbound Autostrada Adriatica in direction A1/Milano/Bologna Casalecchio/E35/Firenze/Bologna Borgo Panigale at San Lazzaro di Savena road surface in poor condition. Danger
601707,2017-12-23T08:00:00+00:00,11.388663739,44.496438568,46.0,4011.0,663516.0,32856.0,MOTORWAY,66.0,4425730.0,5312151.0,13856.0,,50.0,A14/E45 westbound Autostrada Adriatica in direction A1/Milano/Bologna Casalecchio/E35/Firenze/Bologna Borgo Panigale at San Lazzaro di Savena road surface in poor condition. Danger
601709,2017-12-23T08:00:00+00:00,11.383559854,44.50223851,47.0,4013.0,663580.0,32860.0,MOTORWAY,66.0,4425730.0,5312151.0,13856.0,,50.0,A14/E45 westbound Autostrada Adriatica in direction A1/Milano/Bologna Casalecchio/E35/Firenze/Bologna Borgo Panigale at San Lazzaro di Savena road surface in poor condition. Danger
601710,2017-12-23T08:00:00+00:00,11.383127322,44.502732095,47.0,4014.0,664615.0,32917.0,MOTORWAY,66.0,4425730.0,5312151.0,13856.0,,50.0,A14/E45 westbound Autostrada Adriatica in direction A1/Milano/Bologna Casalecchio/E35/Firenze/Bologna Borgo Panigale at San Lazzaro di Savena road surface in poor condition. Danger
601719,2017-12-23T08:00:00+00:00,11.379840074,44.511585075,44.0,4023.0,664692.0,32921.0,MOTORWAY,62.0,4425730.0,5312151.0,13856.0,,50.0,A14/E45 westbound Autostrada Adriatica in direction A1/Milano/Bologna Casalecchio/E35/Firenze/Bologna Borgo Panigale at San Lazzaro di Savena road surface in poor condition. Danger
601721,2017-12-23T08:00:00+00:00,11.379364288,44.512201957,41.0,4025.0,665167.0,32949.0,MOTORWAY,62.0,4425730.0,5312151.0,13856.0,,50.0,A14/E45 westbound Autostrada Adriatica in direction A1/Milano/Bologna Casalecchio/E35/Firenze/Bologna Borgo Panigale at San Lazzaro di Savena road surface in poor condition. Danger
601723,2017-12-23T08:00:00+00:00,11.37633656,44.515872272,38.0,4027.0,665245.0,32953.0,MOTORWAY,62.0,4425730.0,5312151.0,13856.0,,50.0,A14/E45 westbound Autostrada Adriatica in direction A1/Milano/Bologna Casalecchio/E35/Firenze/Bologna Borgo Panigale at San Lazzaro di Savena road surface in poor condition. Danger
601724,2017-12-23T08:00:00+00:00,11.375731014,44.516427425,38.0,4028.0,665317.0,32958.0,MOTORWAY,62.0,4425730.0,5312151.0,13856.0,,50.0,A14/E45 westbound Autostrada Adriatica in direction A1/Milano/Bologna Casalecchio/E35/Firenze/Bologna Borgo Panigale at San Lazzaro di Savena road surface in poor condition. Danger
601725,2017-12-23T08:00:00+00:00,11.375168722,44.516951732,38.0,4029.0,665664.0,32974.0,MOTORWAY,76.0,4425730.0,5312151.0,13856.0,,50.0,A14/E45 westbound Autostrada Adriatica in direction A1/Milano/Bologna Casalecchio/E35/Firenze/Bologna Borgo Panigale at San Lazzaro di Savena road surface in poor condition. Danger
601727,2017-12-23T08:00:00+00:00,11.371967981,44.519048912,38.0,4031.0,665791.0,32980.0,MOTORWAY,76.0,4425730.0,5312151.0,13856.0,,50.0,A14/E45 westbound Autostrada Adriatica in direction A1/Milano/Bologna Casalecchio/E35/Firenze/Bologna Borgo Panigale at San Lazzaro di Savena road surface in poor condition. Danger
601729,2017-12-23T08:00:00+00:00,11.37062713,44.519696555,36.0,4033.0,665902.0,32986.0,MOTORWAY,69.0,4425730.0,5312151.0,13856.0,,50.0,A14/E45 westbound Autostrada Adriatica in direction A1/Milano/Bologna Casalecchio/E35/Firenze/Bologna Borgo Panigale at San Lazzaro di Savena road surface in poor condition. Danger
601731,2017-12-23T08:00:00+00:00,11.369459292,44.520251672,36.0,4035.0,665912.0,32986.0,MOTORWAY,73.0,4425730.0,5312151.0,13856.0,,50.0,A14/E45 westbound Autostrada Adriatica in direction A1/Milano/Bologna Casalecchio/E35/Firenze/Bologna Borgo Panigale at San Lazzaro di Savena road surface in poor condition. Danger
601732,2017-12-23T08:00:00+00:00,11.369372785,44.520313351,36.0,4036.0,666001.0,32991.0,MOTORWAY,69.0,4425730.0,5312151.0,13856.0,,50.0,A14/E45 westbound Autostrada Adriatica in direction A1/Milano/Bologna Casalecchio/E35/Firenze/Bologna Borgo Panigale at San Lazzaro di Savena road surface in poor condition. Danger
601733,2017-12-23T08:00:00+00:00,11.368421214,44.520745105,36.0,4037.0,666027.0,32992.0,MOTORWAY,73.0,4425730.0,5312151.0,13856.0,,50.0,A14/E45 westbound Autostrada Adriatica in direction A1/Milano/Bologna Casalecchio/E35/Firenze/Bologna Borgo Panigale at San Lazzaro di Savena road surface in poor condition. Danger
601734,2017-12-23T08:00:00+00:00,11.368161694,44.520868462,36.0,4038.0,666158.0,32999.0,MOTORWAY,73.0,4425730.0,5312151.0,13856.0,,50.0,A14/E45 westbound Autostrada Adriatica in direction A1/Milano/Bologna Casalecchio/E35/Firenze/Bologna Borgo Panigale at San Lazzaro di Savena road surface in poor condition. Danger
601735,2017-12-23T08:00:00+00:00,11.36677759,44.521516085,36.0,4039.0,666186.0,33000.0,MOTORWAY,73.0,4425730.0,5312151.0,13856.0,,50.0,A14/E45 westbound Autostrada Adriatica in direction A1/Milano/Bologna Casalecchio/E35/Firenze/Bologna Borgo Panigale at San Lazzaro di Savena road surface in poor condition. Danger
601736,2017-12-23T08:00:00+00:00,11.366474817,44.52167028,36.0,4040.0,666341.0,33007.0,MOTORWAY,73.0,4425730.0,5312151.0,13856.0,,50.0,A14/E45 westbound Autostrada Adriatica in direction A1/Milano/Bologna Casalecchio/E35/Firenze/Bologna Borgo Panigale at San Lazzaro di Savena road surface in poor condition. Danger
601737,2017-12-23T08:00:00+00:00,11.364874446,44.522441249,34.0,4041.0,666421.0,33012.0,MOTORWAY,69.0,4425730.0,5312151.0,13856.0,,50.0,A14/E45 westbound Autostrada Adriatica in direction A1/Milano/Bologna Casalecchio/E35/Firenze/Bologna Borgo Panigale at San Lazzaro di Savena road surface in poor condition. Danger
601738,2017-12-23T08:00:00+00:00,11.364009381,44.522842148,34.0,4042.0,666434.0,33012.0,MOTORWAY,73.0,4425730.0,5312151.0,13856.0,,50.0,A14/E45 westbound Autostrada Adriatica in direction A1/Milano/Bologna Casalecchio/E35/Firenze/Bologna Borgo Panigale at San Lazzaro di Savena road surface in poor condition. Danger
601739,2017-12-23T08:00:00+00:00,11.363879621,44.522934663,34.0,4043.0,666631.0,33022.0,MOTORWAY,73.0,4425730.0,5312151.0,13856.0,,50.0,A14/E45 westbound Autostrada Adriatica in direction A1/Milano/Bologna Casalecchio/E35/Firenze/Bologna Borgo Panigale at San Lazzaro di Savena road surface in poor condition. Danger
601740,2017-12-23T08:00:00+00:00,11.361846718,44.523890642,34.0,4044.0,666700.0,33026.0,MOTORWAY,69.0,4425730.0,5312151.0,13856.0,,50.0,A14/E45 westbound Autostrada Adriatica in direction A1/Milano/Bologna Casalecchio/E35/Firenze/Bologna Borgo Panigale at San Lazzaro di Savena road surface in poor condition. Danger
601741,2017-12-23T08:00:00+00:00,11.361111413,44.524229856,34.0,4045.0,666731.0,33027.0,MOTORWAY,73.0,4425730.0,5312151.0,13856.0,,50.0,A14/E45 westbound Autostrada Adriatica in direction A1/Milano/Bologna Casalecchio/E35/Firenze/Bologna Borgo Panigale at San Lazzaro di Savena road surface in poor condition. Danger
601742,2017-12-23T08:00:00+00:00,11.360765387,44.524384044,34.0,4046.0,666793.0,33030.0,MOTORWAY,73.0,4425730.0,5312151.0,13856.0,,50.0,A14/E45 westbound Autostrada Adriatica in direction A1/Milano/Bologna Casalecchio/E35/Firenze/Bologna Borgo Panigale at San Lazzaro di Savena road surface in poor condition. Danger
601743,2017-12-23T08:00:00+00:00,11.360159841,44.524723255,34.0,4047.0,666888.0,33035.0,MOTORWAY,69.0,4425730.0,5312151.0,13856.0,,50.0,A14/E45 westbound Autostrada Adriatica in direction A1/Milano/Bologna Casalecchio/E35/Firenze/Bologna Borgo Panigale at San Lazzaro di Savena road surface in poor condition. Danger
601745,2017-12-23T08:00:00+00:00,11.359121763,44.525185813,34.0,4049.0,666931.0,33037.0,MOTORWAY,73.0,4425730.0,5312151.0,13856.0,,50.0,A14/E45 westbound Autostrada Adriatica in direction A1/Milano/Bologna Casalecchio/E35/Firenze/Bologna Borgo Panigale at San Lazzaro di Savena road surface in poor condition. Danger
601746,2017-12-23T08:00:00+00:00,11.35868923,44.525401672,34.0,4050.0,666947.0,33038.0,MOTORWAY,73.0,4425730.0,5312151.0,13856.0,,50.0,A14/E45 westbound Autostrada Adriatica in direction A1/Milano/Bologna Casalecchio/E35/Firenze/Bologna Borgo Panigale at San Lazzaro di Savena road surface in poor condition. Danger
601747,2017-12-23T08:00:00+00:00,11.358516217,44.525494183,34.0,4051.0,666955.0,33038.0,MOTORWAY,69.0,4425730.0,5312151.0,13856.0,,50.0,A14/E45 westbound Autostrada Adriatica in direction A1/Milano/Bologna Casalecchio/E35/Firenze/Bologna Borgo Panigale at San Lazzaro di Savena road surface in poor condition. Danger
601748,2017-12-23T08:00:00+00:00,11.358429711,44.52552502,34.0,4052.0,666972.0,33039.0,MOTORWAY,73.0,4425730.0,5312151.0,13856.0,,50.0,A14/E45 westbound Autostrada Adriatica in direction A1/Milano/Bologna Casalecchio/E35/Firenze/Bologna Borgo Panigale at San Lazzaro di Savena road surface in poor condition. Danger
601749,2017-12-23T08:00:00+00:00,11.358256698,44.525586694,34.0,4053.0,667179.0,33049.0,MOTORWAY,73.0,4425730.0,5312151.0,13856.0,,50.0,A14/E45 westbound Autostrada Adriatica in direction A1/Milano/Bologna Casalecchio/E35/Firenze/Bologna Borgo Panigale at San Lazzaro di Savena road surface in poor condition. Danger
601750,2017-12-23T08:00:00+00:00,11.356050781,44.526604302,34.0,4054.0,667188.0,33050.0,MOTORWAY,73.0,4425730.0,5312151.0,13856.0,,50.0,A14/E45 westbound Autostrada Adriatica in direction A1/Milano/Bologna Casalecchio/E35/Firenze/Bologna Borgo Panigale at San Lazzaro di Savena road surface in poor condition. Danger
601751,2017-12-23T08:00:00+00:00,11.355964275,44.526635138,34.0,4055.0,667268.0,33054.0,MOTORWAY,73.0,4425730.0,5312151.0,13856.0,,50.0,A14/E45 westbound Autostrada Adriatica in direction A1/Milano/Bologna Casalecchio/E35/Firenze/Bologna Borgo Panigale at San Lazzaro di Savena road surface in poor condition. Danger
601752,2017-12-23T08:00:00+00:00,11.35509921,44.527005172,34.0,4056.0,667365.0,33058.0,MOTORWAY,73.0,4425730.0,5312151.0,13856.0,,50.0,A14/E45 westbound Autostrada Adriatica in direction A1/Milano/Bologna Casalecchio/E35/Firenze/Bologna Borgo Panigale at San Lazzaro di Savena road surface in poor condition. Danger
601753,2017-12-23T08:00:00+00:00,11.353974625,44.527406041,38.0,4057.0,667391.0,33060.0,MOTORWAY,73.0,4425730.0,5312151.0,13856.0,,50.0,A14/E45 westbound Autostrada Adriatica in direction A1/Milano/Bologna Casalecchio/E35/Firenze/Bologna Borgo Panigale at San Lazzaro di Savena road surface in poor condition. Danger
601754,2017-12-23T08:00:00+00:00,11.353671852,44.527498548,38.0,4058.0,667578.0,33069.0,MOTORWAY,73.0,4425730.0,5312151.0,13856.0,,50.0,A14/E45 westbound Autostrada Adriatica in direction A1/Milano/Bologna Casalecchio/E35/Firenze/Bologna Borgo Panigale at San Lazzaro di Savena road surface in poor condition. Danger
601756,2017-12-23T08:00:00+00:00,11.351552442,44.528176933,35.0,4060.0,667618.0,33071.0,MOTORWAY,69.0,4425730.0,5312151.0,13856.0,,50.0,A14/E45 westbound Autostrada Adriatica in direction A1/Milano/Bologna Casalecchio/E35/Firenze/Bologna Borgo Panigale at San Lazzaro di Savena road surface in poor condition. Danger
601757,2017-12-23T08:00:00+00:00,11.351076657,44.52833111,35.0,4061.0,667626.0,33071.0,MOTORWAY,73.0,4425730.0,5312151.0,13856.0,,50.0,A14/E45 westbound Autostrada Adriatica in direction A1/Milano/Bologna Casalecchio/E35/Firenze/Bologna Borgo Panigale at San Lazzaro di Savena road surface in poor condition. Danger
601758,2017-12-23T08:00:00+00:00,11.35099015,44.528361946,35.0,4062.0,667691.0,33075.0,MOTORWAY,69.0,4425730.0,5312151.0,13856.0,,50.0,A14/E45 westbound Autostrada Adriatica in direction A1/Milano/Bologna Casalecchio/E35/Firenze/Bologna Borgo Panigale at San Lazzaro di Savena road surface in poor condition. Danger
601759,2017-12-23T08:00:00+00:00,11.350254845,44.528577793,35.0,4063.0,667857.0,33083.0,MOTORWAY,73.0,4425730.0,5312151.0,13856.0,,50.0,A14/E45 westbound Autostrada Adriatica in direction A1/Milano/Bologna Casalecchio/E35/Firenze/Bologna Borgo Panigale at San Lazzaro di Savena road surface in poor condition. Danger
601761,2017-12-23T08:00:00+00:00,11.348351701,44.529194495,35.0,4065.0,667963.0,33088.0,MOTORWAY,76.0,4425730.0,5312151.0,13856.0,,50.0,A14/E45 westbound Autostrada Adriatica in direction A1/Milano/Bologna Casalecchio/E35/Firenze/Bologna Borgo Panigale at San Lazzaro di Savena road surface in poor condition. Danger
601762,2017-12-23T08:00:00+00:00,11.347097357,44.529564514,35.0,4066.0,668098.0,33094.0,MOTORWAY,76.0,4425730.0,5312151.0,13856.0,,50.0,A14/E45 westbound Autostrada Adriatica in direction A1/Milano/Bologna Casalecchio/E35/Firenze/Bologna Borgo Panigale at San Lazzaro di Savena road surface in poor condition. Danger
601763,2017-12-23T08:00:00+00:00,11.345496986,44.52993453,35.0,4067.0,668212.0,33100.0,MOTORWAY,69.0,4425730.0,5312151.0,13856.0,,50.0,A14/E45 westbound Autostrada Adriatica in direction A1/Milano/Bologna Casalecchio/E35/Firenze/Bologna Borgo Panigale at San Lazzaro di Savena road surface in poor condition. Danger
601764,2017-12-23T08:00:00+00:00,11.344069629,44.530181206,35.0,4068.0,668407.0,33109.0,MOTORWAY,76.0,4425730.0,5312151.0,13856.0,,50.0,A14/E45 westbound Autostrada Adriatica in direction A1/Milano/Bologna Casalecchio/E35/Firenze/Bologna Borgo Panigale at San Lazzaro di Savena road surface in poor condition. Danger
601765,2017-12-23T08:00:00+00:00,11.341690699,44.53064372,29.0,4069.0,668415.0,33110.0,MOTORWAY,73.0,4425730.0,5312151.0,13856.0,,50.0,A14/E45 westbound Autostrada Adriatica in direction A1/Milano/Bologna Casalecchio/E35/Firenze/Bologna Borgo Panigale at San Lazzaro di Savena road surface in poor condition. Danger
601766,2017-12-23T08:00:00+00:00,11.341604193,44.530674554,29.0,4070.0,668460.0,33112.0,MOTORWAY,73.0,4425730.0,5312151.0,13856.0,,50.0,A14/E45 westbound Autostrada Adriatica in direction A1/Milano/Bologna Casalecchio/E35/Firenze/Bologna Borgo Panigale at San Lazzaro di Savena road surface in poor condition. Danger
601767,2017-12-23T08:00:00+00:00,11.3410419,44.530767057,29.0,4071.0,668558.0,33116.0,MOTORWAY,76.0,4425730.0,5312151.0,13856.0,,50.0,A14/E45 westbound Autostrada Adriatica in direction A1/Milano/Bologna Casalecchio/E35/Firenze/Bologna Borgo Panigale at San Lazzaro di Savena road surface in poor condition. Danger
601768,2017-12-23T08:00:00+00:00,11.339874062,44.530982895,29.0,4072.0,668620.0,33119.0,MOTORWAY,76.0,4425730.0,5312151.0,13856.0,,50.0,A14/E45 westbound Autostrada Adriatica in direction A1/Milano/Bologna Casalecchio/E35/Firenze/Bologna Borgo Panigale at San Lazzaro di Savena road surface in poor condition. Danger
601769,2017-12-23T08:00:00+00:00,11.339095504,44.531106231,29.0,4073.0,670229.0,33195.0,MOTORWAY,76.0,4425730.0,5312151.0,13856.0,,50.0,A14/E45 westbound Autostrada Adriatica in direction A1/Milano/Bologna Casalecchio/E35/Firenze/Bologna Borgo Panigale at San Lazzaro di Savena road surface in poor condition. Danger
601777,2017-12-23T08:00:00+00:00,11.319545031,44.530397046,35.0,4081.0,670618.0,33213.0,MOTORWAY,76.0,4425730.0,5312151.0,13856.0,,50.0,A14/E45 westbound Autostrada Adriatica in direction A1/Milano/Bologna Casalecchio/E35/Firenze/Bologna Borgo Panigale at San Lazzaro di Savena road surface in poor condition. Danger
601779,2017-12-23T08:00:00+00:00,11.315479224,44.528454452,35.0,4083.0,670852.0,33224.0,MOTORWAY,76.0,4425730.0,5312151.0,13856.0,,50.0,A14/E45 westbound Autostrada Adriatica in direction A1/Milano/Bologna Casalecchio/E35/Firenze/Bologna Borgo Panigale at San Lazzaro di Savena road surface in poor condition. Danger
601781,2017-12-23T08:00:00+00:00,11.313013788,44.527282697,38.0,4085.0,671002.0,33232.0,MOTORWAY,69.0,4425730.0,5312151.0,13856.0,,50.0,A14/E45 westbound Autostrada Adriatica in direction A1/Milano/Bologna Casalecchio/E35/Firenze/Bologna Borgo Panigale at San Lazzaro di Savena road surface in poor condition. Danger
601782,2017-12-23T08:00:00+00:00,11.311456671,44.526542629,38.0,4086.0,671120.0,33238.0,MOTORWAY,73.0,4425730.0,5312151.0,13856.0,,50.0,A14/E45 westbound Autostrada Adriatica in direction A1/Milano/Bologna Casalecchio/E35/Firenze/Bologna Borgo Panigale at San Lazzaro di Savena road surface in poor condition. Danger
601783,2017-12-23T08:00:00+00:00,11.310202327,44.525956735,38.0,4087.0,671237.0,33243.0,MOTORWAY,76.0,4425730.0,5312151.0,13856.0,,50.0,A14/E45 westbound Autostrada Adriatica in direction A1/Milano/Bologna Casalecchio/E35/Firenze/Bologna Borgo Panigale at San Lazzaro di Savena road surface in poor condition. Danger
601784,2017-12-23T08:00:00+00:00,11.308861475,44.525494183,33.0,4088.0,671410.0,33251.0,MOTORWAY,76.0,4425730.0,5312151.0,13856.0,,50.0,A14/E45 westbound Autostrada Adriatica in direction A1/Milano/Bologna Casalecchio/E35/Firenze/Bologna Borgo Panigale at San Lazzaro di Savena road surface in poor condition. Danger
601785,2017-12-23T08:00:00+00:00,11.306828572,44.525000791,33.0,4089.0,671776.0,33269.0,MOTORWAY,73.0,4425730.0,5312151.0,13856.0,,50.0,A14/E45 westbound Autostrada Adriatica in direction A1/Milano/Bologna Casalecchio/E35/Firenze/Bologna Borgo Panigale at San Lazzaro di Savena road surface in poor condition. Danger
601788,2017-12-23T08:00:00+00:00,11.302243727,44.524661581,33.0,4092.0,671844.0,33273.0,MOTORWAY,73.0,4425730.0,5312151.0,13856.0,,50.0,A14/E45 westbound Autostrada Adriatica in direction A1/Milano/Bologna Casalecchio/E35/Firenze/Bologna Borgo Panigale at San Lazzaro di Savena road surface in poor condition. Danger
601789,2017-12-23T08:00:00+00:00,11.301378662,44.524630743,33.0,4093.0,672179.0,33289.0,MOTORWAY,73.0,4425730.0,5312151.0,13856.0,,50.0,A14/E45 westbound Autostrada Adriatica in direction A1/Milano/Bologna Casalecchio/E35/Firenze/Bologna Borgo Panigale at San Lazzaro di Savena road surface in poor condition. Danger
601790,2017-12-23T08:00:00+00:00,11.297139842,44.524445719,37.0,4094.0,672205.0,33290.0,MOTORWAY,73.0,4425730.0,5312151.0,13856.0,,50.0,A14/E45 westbound Autostrada Adriatica in direction A1/Milano/Bologna Casalecchio/E35/Firenze/Bologna Borgo Panigale at San Lazzaro di Savena road surface in poor condition. Danger
601791,2017-12-23T08:00:00+00:00,11.296837069,44.524414881,37.0,4095.0,672237.0,33292.0,MOTORWAY,73.0,4425730.0,5312151.0,13856.0,,50.0,A14/E45 westbound Autostrada Adriatica in direction A1/Milano/Bologna Casalecchio/E35/Firenze/Bologna Borgo Panigale at San Lazzaro di Savena road surface in poor condition. Danger
601792,2017-12-23T08:00:00+00:00,11.29644779,44.524414881,37.0,4096.0,672285.0,33294.0,MOTORWAY,73.0,4425730.0,5312151.0,13856.0,,50.0,A14/E45 westbound Autostrada Adriatica in direction A1/Milano/Bologna Casalecchio/E35/Firenze/Bologna Borgo Panigale at San Lazzaro di Savena road surface in poor condition. Danger
601793,2017-12-23T08:00:00+00:00,11.295842244,44.524384044,37.0,4097.0,672357.0,33298.0,MOTORWAY,73.0,4425730.0,5312151.0,13856.0,,50.0,A14/E45 westbound Autostrada Adriatica in direction A1/Milano/Bologna Casalecchio/E35/Firenze/Bologna Borgo Panigale at San Lazzaro di Savena road surface in poor condition. Danger
601794,2017-12-23T08:00:00+00:00,11.294933926,44.524353206,37.0,4098.0,672520.0,33306.0,MOTORWAY,76.0,4425730.0,5312151.0,13856.0,,50.0,A14/E45 westbound Autostrada Adriatica in direction A1/Milano/Bologna Casalecchio/E35/Firenze/Bologna Borgo Panigale at San Lazzaro di Savena road surface in poor condition. Danger
601796,2017-12-23T08:00:00+00:00,11.29285777,44.524229856,37.0,4100.0,672888.0,33323.0,MOTORWAY,76.0,4425730.0,5312151.0,13856.0,,50.0,A14/E45 westbound Autostrada Adriatica in direction A1/Milano/Bologna Casalecchio/E35/Firenze/Bologna Borgo Panigale at San Lazzaro di Savena road surface in poor condition. Danger
601797,2017-12-23T08:00:00+00:00,11.288229671,44.52404483,37.0,4101.0,672947.0,33326.0,MOTORWAY,69.0,4425730.0,5312151.0,13856.0,,50.0,A14/E45 westbound Autostrada Adriatica in direction A1/Milano/Bologna Casalecchio/E35/Firenze/Bologna Borgo Panigale at San Lazzaro di Savena road surface in poor condition. Danger
603512,2017-12-23T08:00:00+00:00,9.1752646985,45.541373055,154.0,5816.0,963974.0,48324.0,MOTORWAY,40.0,4373665.0,5346840.0,390.0,,40.0,A4/E64 westbound Autostrada Milano-Brescia at Cormano new roadworks layout
603513,2017-12-23T08:00:00+00:00,9.1750484322,45.541312466,154.0,5817.0,964015.0,48327.0,MOTORWAY,40.0,4373665.0,5346840.0,390.0,,40.0,A4/E64 westbound Autostrada Milano-Brescia at Cormano new roadworks layout
603514,2017-12-23T08:00:00+00:00,9.1745726464,45.541160994,154.0,5818.0,964235.0,48347.0,MOTORWAY,40.0,4373665.0,5346840.0,390.0,,40.0,A4/E64 westbound Autostrada Milano-Brescia at Cormano new roadworks layout
603516,2017-12-23T08:00:00+00:00,9.1720207041,45.540343038,151.755,5820.0,964309.0,48354.0,MOTORWAY,40.0,4373665.0,5346840.0,390.0,,40.0,A4/E64 westbound Autostrada Milano-Brescia at Cormano new roadworks layout
603517,2017-12-23T08:00:00+00:00,9.1711556389,45.540040088,151.0,5821.0,964347.0,48357.0,MOTORWAY,40.0,4373665.0,5346840.0,390.0,,40.0,A4/E64 westbound Autostrada Milano-Brescia at Cormano new roadworks layout

